time bin centers;Bring Home Water;Splitting;ShakeUp
0.05;0.000000000000002;0.00067875;0.4381
0.15;0.000000000000002;0.0068207;0.51455
0.25;0.00035006465725490266;0.10319;0.61513
0.35;0.04154677277450983;0.37767;0.75831
0.45;0.32797730608823517;0.50773;0.81177
0.55;0.7532962770686277;0.64942;0.86384
0.65;0.9640247019215689;0.76883;0.92944
0.75;0.9984364760588235;0.84273;0.95007
0.85;0.999103966;0.90533;0.96731
0.95;0.999103966;0.97803;0.98502
1.05;0.999103966;0.99714;0.99162
1.15;0.999103966;0.99905;0.99604
