0.1,5.766049668654858e-14
0.11,3.8690718622195785e-13
0.12,1.639138556538214e-12
0.13,5.192355704828627e-12
0.14,0.06185962740572424
0.15,0.14439473418005114
0.16,0.2507633891249248
0.17,0.37194151887926963
0.18,0.5049790492347829
0.19,0.6275037002518028
0.2,0.7378408537787499
0.205,0.7831717883960552
0.21,0.8259885121736906
0.215,0.8603826890029841
0.22,0.8894511472382387
0.225,0.9134294534950139
0.23,0.9339837686885963
0.235,0.949036039059346
0.24,0.9607662424898743
0.245,0.9703632537118903
0.25,0.9771175098466396
0.255,0.9822130562585312
0.26,0.9860398352883522
0.265,0.9890875530733814
0.27,0.9951023269634575
0.275,0.9949748620184781
0.28,0.998755335890818
0.285,0.9952991399319701
0.29,0.9962046275699288
0.295,0.9969730298345144
0.3,0.999003413884031
